day temp
1.000000 24.800000
2.000000 21.100000
3.000000 6.000000
4.000000 13.900000
5.000000 0.900000
6.000000 14.000000
7.000000 26.900000
8.000000 15.800000
9.000000 12.500000
10.000000 19.800000
11.000000 24.400000
12.000000 25.000000
13.000000 28.800000
14.000000 17.500000
15.000000 28.200000
16.000000 15.300000
17.000000 8.300000
18.000000 -1.200000
19.000000 11.700000
20.000000 0.300000
21.000000 6.700000
22.000000 -13.000000
23.000000 -3.600000
24.000000 -21.000000
25.000000 3.600000
26.000000 19.200000
27.000000 6.400000
28.000000 -9.900000
29.000000 -3.500000
30.000000 5.900000
31.000000 2.100000
32.000000 -6.100000
33.000000 -11.300000
34.000000 -13.400000
35.000000 -18.400000
36.000000 5.600000
37.000000 9.700000
38.000000 9.500000
39.000000 4.700000
40.000000 21.400000
41.000000 26.000000
42.000000 26.400000
43.000000 13.000000
44.000000 14.500000
45.000000 27.900000
46.000000 12.400000
47.000000 12.500000
48.000000 9.000000
49.000000 7.700000
50.000000 -1.300000
51.000000 4.100000
52.000000 14.100000
53.000000 18.100000
54.000000 -6.700000
55.000000 -11.400000
56.000000 4.000000
57.000000 9.400000
58.000000 11.300000
59.000000 32.400000
60.000000 24.400000
61.000000 16.700000
62.000000 10.100000
63.000000 8.500000
64.000000 5.400000
65.000000 0.600000
66.000000 -8.800000
67.000000 -15.100000
68.000000 -9.900000
69.000000 10.600000
70.000000 18.800000
71.000000 21.900000
72.000000 17.900000
73.000000 2.400000
74.000000 -0.800000
75.000000 5.100000
76.000000 27.700000
77.000000 24.900000
78.000000 14.900000
79.000000 3.000000
80.000000 3.200000
81.000000 7.600000
82.000000 19.500000
83.000000 12.300000
84.000000 18.600000
85.000000 19.700000
86.000000 23.800000
87.000000 24.500000
88.000000 24.900000
89.000000 21.900000
90.000000 25.100000
91.000000 17.700000
92.000000 17.400000
93.000000 30.800000
94.000000 27.900000
95.000000 26.100000
96.000000 27.500000
97.000000 30.400000
98.000000 20.800000
99.000000 24.500000
100.000000 24.900000
101.000000 35.600000
102.000000 37.200000
103.000000 36.600000
104.000000 35.600000
105.000000 32.600000
106.000000 35.700000
107.000000 34.200000
108.000000 35.700000
109.000000 29.100000
110.000000 25.200000
111.000000 26.300000
112.000000 27.700000
113.000000 34.800000
114.000000 37.100000
115.000000 36.500000
116.000000 36.600000
117.000000 34.400000
118.000000 30.800000
119.000000 27.100000
120.000000 27.300000
121.000000 31.300000
122.000000 35.700000
123.000000 38.600000
124.000000 39.300000
125.000000 37.200000
126.000000 39.200000
127.000000 40.100000
128.000000 40.000000
129.000000 46.200000
130.000000 50.100000
131.000000 50.800000
132.000000 46.900000
133.000000 46.000000
134.000000 46.100000
135.000000 45.700000
136.000000 49.400000
137.000000 42.900000
138.000000 42.300000
139.000000 46.300000
140.000000 46.800000
141.000000 48.200000
142.000000 46.400000
143.000000 41.400000
144.000000 45.800000
145.000000 53.200000
146.000000 45.400000
147.000000 43.500000
148.000000 53.500000
149.000000 45.300000
150.000000 40.600000
151.000000 45.500000
152.000000 45.800000
153.000000 45.300000
154.000000 45.200000
155.000000 42.300000
156.000000 38.500000
157.000000 37.400000
158.000000 39.300000
159.000000 42.400000
160.000000 45.100000
161.000000 44.700000
162.000000 38.900000
163.000000 39.500000
164.000000 41.600000
165.000000 52.800000
166.000000 59.500000
167.000000 63.600000
168.000000 53.700000
169.000000 54.200000
170.000000 57.800000
171.000000 56.400000
172.000000 45.800000
173.000000 46.500000
174.000000 49.100000
175.000000 48.500000
176.000000 56.400000
177.000000 58.100000
178.000000 50.700000
179.000000 48.200000
180.000000 46.500000
181.000000 46.900000
182.000000 55.600000
183.000000 64.400000
184.000000 58.000000
185.000000 48.400000
186.000000 49.900000
187.000000 52.800000
188.000000 49.900000
189.000000 52.600000
190.000000 59.400000
191.000000 62.000000
192.000000 58.200000
193.000000 62.500000
194.000000 54.700000
195.000000 55.500000
196.000000 55.500000
197.000000 61.200000
198.000000 69.500000
199.000000 71.700000
200.000000 78.700000
201.000000 70.900000
202.000000 61.700000
203.000000 61.100000
204.000000 59.800000
205.000000 59.200000
206.000000 66.200000
207.000000 55.100000
208.000000 62.400000
209.000000 71.400000
210.000000 68.600000
211.000000 76.200000
212.000000 76.300000
213.000000 76.900000
214.000000 62.900000
215.000000 56.500000
216.000000 56.600000
217.000000 54.200000
218.000000 49.100000
219.000000 50.000000
220.000000 52.700000
221.000000 49.200000
222.000000 54.400000
223.000000 50.000000
224.000000 50.300000
225.000000 47.200000
226.000000 48.100000
227.000000 48.200000
228.000000 53.400000
229.000000 61.100000
230.000000 57.900000
231.000000 54.700000
232.000000 50.300000
233.000000 47.700000
234.000000 47.800000
235.000000 47.200000
236.000000 52.800000
237.000000 58.100000
238.000000 55.600000
239.000000 48.100000
240.000000 45.300000
241.000000 50.400000
242.000000 61.200000
243.000000 46.700000
244.000000 48.900000
245.000000 53.500000
246.000000 59.500000
247.000000 49.100000
248.000000 46.700000
249.000000 42.600000
250.000000 44.200000
251.000000 45.900000
252.000000 46.600000
253.000000 55.400000
254.000000 56.800000
255.000000 52.300000
256.000000 50.200000
257.000000 47.700000
258.000000 47.800000
259.000000 47.100000
260.000000 nan
261.000000 45.000000
262.000000 45.500000
263.000000 46.700000
264.000000 50.600000
265.000000 45.900000
266.000000 48.700000
267.000000 nan
268.000000 37.500000
269.000000 38.000000
270.000000 36.700000
271.000000 32.700000
272.000000 32.300000
273.000000 36.900000
274.000000 38.400000
275.000000 36.900000
276.000000 34.900000
277.000000 33.500000
278.000000 28.300000
279.000000 29.600000
280.000000 33.600000
281.000000 35.000000
282.000000 36.600000
283.000000 36.900000
284.000000 32.400000
285.000000 31.400000
286.000000 40.500000
287.000000 45.200000
288.000000 45.100000
289.000000 34.700000
290.000000 36.200000
291.000000 33.700000
292.000000 32.700000
293.000000 34.100000
294.000000 37.000000
295.000000 28.700000
296.000000 24.100000
297.000000 31.800000
298.000000 32.900000
299.000000 31.700000
300.000000 25.700000
301.000000 23.700000
302.000000 25.400000
303.000000 14.600000
304.000000 28.800000
305.000000 32.700000
306.000000 24.700000
307.000000 32.100000
308.000000 35.400000
309.000000 35.800000
310.000000 34.000000
311.000000 26.100000
312.000000 26.800000
313.000000 32.700000
314.000000 36.000000
315.000000 36.300000
316.000000 38.900000
317.000000 34.400000
318.000000 30.100000
319.000000 35.400000
320.000000 39.300000
321.000000 nan
322.000000 nan
323.000000 nan
324.000000 nan
325.000000 nan
326.000000 nan
327.000000 30.400000
328.000000 28.100000
329.000000 26.500000
330.000000 28.100000
331.000000 11.700000
332.000000 27.200000
333.000000 21.100000
334.000000 22.700000
335.000000 36.900000
336.000000 32.800000
337.000000 31.800000
338.000000 28.000000
339.000000 23.100000
340.000000 29.300000
341.000000 20.700000
342.000000 -1.300000
343.000000 19.400000
344.000000 12.300000
345.000000 8.000000
346.000000 30.100000
347.000000 34.600000
348.000000 38.700000
349.000000 17.200000
350.000000 8.900000
351.000000 17.800000
352.000000 20.400000
353.000000 19.100000
354.000000 18.000000
355.000000 25.600000
356.000000 7.800000
357.000000 5.200000
358.000000 8.600000
359.000000 15.100000
360.000000 22.000000
361.000000 18.700000
362.000000 18.400000
363.000000 27.500000
364.000000 16.800000
365.000000 10.300000
